{
  "CHANGELOG.md": "75d1ba24d2e9312a94ad9d78a608be8d",
  "CONTRIBUTING.md": "083b371bc53691f34fc73df297b6fd3c",
  "Gemfile": "b2c620349410a7b5dcc86fa7a71b44c4",
  "Guardfile": "649c0c0d73003191dfc00d6d328017b1",
  "LICENSE": "136e4f49dbf29942c572a3a8f6e88a77",
  "README.md": "2322635a6aeb2157180bf56ea54e3c69",
  "Rakefile": "4deabf44de003b5cb3cd695c5da8ea19",
  "bin/puppet-cloud": "a54b7734422c249cee01100246a99f64",
  "contrib/create-aws-credentials.rb": "c4d9c5ff208fcc244b71db3d1b397a39",
  "contrib/packer/Puppetfile": "041ed93b392c6f1effdc33718ad4bf7d",
  "contrib/packer/Puppetfile.lock": "4f856efd76b03c655e9781a5ba3bca18",
  "contrib/packer/README.md": "48644787e945e6e82fde4411bb8d678d",
  "contrib/packer/hiera.yaml": "25c0965dcc9c08e6bb2cae60501dd110",
  "contrib/packer/hieradata/common.yaml": "e2e59328a3e9def61c10843aa6a857d9",
  "contrib/packer/manifests/site.pp": "ad5658d102523daf6904a3615e31f677",
  "contrib/packer/scripts/puppet.sh": "3df4c935340120ebfeb56575f13ae801",
  "contrib/packer/scripts/serverspec.sh": "dc34cb5a335d6837395c290131dfa290",
  "contrib/packer/template.json": "8b348f3231bbd74fa2f65f15882f711b",
  "contrib/packer/tests/Rakefile": "1c6b80e475627411c8144bddc3da06dd",
  "contrib/packer/tests/spec/locales_spec.rb": "391b92216e3c467bb29d12b706b9136e",
  "contrib/packer/tests/spec/ntp_spec.rb": "ce2bf78243b6215d4a5b086017bba568",
  "contrib/packer/tests/spec/puppet_spec.rb": "62c91ddbd9aedbcb021b685303e198c7",
  "contrib/packer/tests/spec/spec_helper.rb": "8bd04476d023de0fd015b3a3e2db826a",
  "contrib/packer/tests/spec/ssh_spec.rb": "51d6fcf1ad147eb86e7e9a5057641684",
  "contrib/packer/tests/spec/timezone_spec.rb": "185cd7ea1c520eea31c37204ee6a032e",
  "contrib/packer/tests/spec/user_spec.rb": "b650cb196c4365849008f55e4b820df3",
  "examples/README.md": "16483f40edc60797cc50021c33c3b4cc",
  "examples/audit-security-groups/README.md": "912fb9f562f4aa5883aab1c7c9da8912",
  "examples/audit-security-groups/count_out_of_sync_resources.sh": "fbf19625d6f1995befa53735a6bda4d5",
  "examples/audit-security-groups/init.pp": "010ea2593c42f683d28136e28afd00d8",
  "examples/auto-scaling-groups/README.md": "a7801073f3cd698952c15e562b90f252",
  "examples/auto-scaling-groups/destroy.pp": "1ea322ea4ad2f0e448dc3623a282b029",
  "examples/auto-scaling-groups/init.pp": "51d2447e8099508a0309362f9aedbdb5",
  "examples/create-your-own-abstractions/README.md": "ad95103a3e95b6888d71485b436f1eeb",
  "examples/create-your-own-abstractions/destroy.pp": "d73b74a65ebcdcc5c2ae03febfb5f9ac",
  "examples/create-your-own-abstractions/init.pp": "405488d904958a5f03eafe16d8658f2b",
  "examples/create-your-own-abstractions/somegroup.pp": "462a64e9f122afa10dc16dad7b25f583",
  "examples/data-driven-manifests/README.md": "d8ba9725c53b769fdf5e95cd5d9bf6eb",
  "examples/data-driven-manifests/init.pp": "a209fa6337ad2d95ae0e7692939f7292",
  "examples/distribute-across-az/README.md": "6cdd69b39dd2da524985c0ab925c482d",
  "examples/distribute-across-az/destroy.pp": "cf4f4e9fc5dea26b6d7dc6b27162f2ce",
  "examples/distribute-across-az/init.pp": "d85eb6af26327adec4c768d554c46672",
  "examples/elastic-ip-addresses/README.md": "a05140fd20df429f5e95667803c37f90",
  "examples/elastic-ip-addresses/init.pp": "f2a779a0786a05c3509daca9392fbe84",
  "examples/hiera-example/README.md": "89e0396e84d0993f576fc16aa0e249a1",
  "examples/hiera-example/hiera.yaml": "d4ddd97e54566aa7edd92c07d3cf0d07",
  "examples/hiera-example/hieradata/common.yaml": "a9427fe413fe52cddb2ea66a5c56e7f4",
  "examples/hiera-example/init.pp": "8c8124e0c5428ae14133866c4eb22246",
  "examples/iam-profile/README.md": "64f66916c35b4e82f6ce368fa6c18746",
  "examples/iam-profile/profile.json": "264c90d987dc2a02366f1ccdc3673cd4",
  "examples/manage-dns/README.md": "16a3399f58165d8b9c504474cc4a5236",
  "examples/manage-dns/delete.pp": "dff47e6d45447b05bd6f5662df52a3d9",
  "examples/manage-dns/init.pp": "f756d458b09b647d9489444687325964",
  "examples/postgres-rds-example/README.md": "b1b249c30b91e9fc79f1cc9f932c67c6",
  "examples/postgres-rds-example/images/add-ip-to-allow.png": "ef32246c68948e21c7c9eb4d55d5dbee",
  "examples/postgres-rds-example/images/add-rds-securitygroup.png": "1258bf89ef06e39c332bcc555617f974",
  "examples/postgres-rds-example/images/final-screen.png": "c762ed215aa701d0c4e1b3f9642b3c5c",
  "examples/postgres-rds-example/rds_postgres.pp": "cba2d3e63f8cd05e70c9bd817f07ba37",
  "examples/postgres-rds-example/rds_security.pp": "fc6e5aa96836028c16dbc464936fbc5e",
  "examples/puppet-enterprise/README.md": "4625bf7ddfb83fe660b612510b573f1e",
  "examples/puppet-enterprise/pe_agent.pp": "909861b0d83cb4bf3c2c377db672a084",
  "examples/puppet-enterprise/pe_master.pp": "a203c6d9119d64ac9108024bb188d39b",
  "examples/puppet-enterprise/templates/agent-pe-userdata.erb": "16d03e8ded26e721bef2ac9c1f5f4586",
  "examples/puppet-enterprise/templates/master-pe-userdata.erb": "c6ea25ac2d0a08ca91c0df2aa30ee2a7",
  "examples/puppet-enterprise/templates/windows-pe.erb": "7f880352136ef36bb0ff0093e2ad333a",
  "examples/unit-testing/Gemfile": "c8f9e7f71607eb79ab4f301ccb24136d",
  "examples/unit-testing/Puppetfile": "fe3a6dd4cd522a2f0e48d64171bbadad",
  "examples/unit-testing/README.md": "dd9bfb6e37daa492810db304751f023a",
  "examples/unit-testing/Rakefile": "550c03c9a59d45665573c657b23f35cd",
  "examples/unit-testing/manifests/site.pp": "db66410a810727994a28f62415fa06bd",
  "examples/unit-testing/spec/fixtures/hiera/hiera.yaml": "67b96b66d1af7403a33293dc4c9e496d",
  "examples/unit-testing/spec/fixtures/hiera/test.yaml": "c935382bde33f1785b5f3ed37fed118e",
  "examples/unit-testing/spec/hosts/arbiter_spec.rb": "d080a1420da4ee6ae90bc51cc9afce81",
  "examples/unit-testing/spec/spec_helper.rb": "e2315eb65666ebba905f02c367b5c205",
  "examples/vpc-example/README.md": "2262a3772d9aa638c4237aa9547475e6",
  "examples/vpc-example/destroy.pp": "45e37f259fe19f1feacbfdc4603d225b",
  "examples/vpc-example/init.pp": "69f43e1a7c156d8294d79e539f1e9990",
  "examples/vpc-example/vpn.pp": "eebde0ddea61104d9aad29796dd443fe",
  "examples/vpc-example/vpn_destroy.pp": "3c45160d2057f0b42799e23713ab7460",
  "examples/yaml-infrastructure-definition/README.md": "e4a69dfb5e411d5aa54dcac74f0dbbe8",
  "examples/yaml-infrastructure-definition/hiera.yaml": "d4ddd97e54566aa7edd92c07d3cf0d07",
  "examples/yaml-infrastructure-definition/hieradata/common.yaml": "c217702160abfc31fd26c228a74d9a48",
  "examples/yaml-infrastructure-definition/init.pp": "0513f09afed1f1049859f54c5aa629ff",
  "fixtures/vcr_cassettes/alarm-setup.yml": "1d316dccf84ee36d5620e46c2d5e557f",
  "fixtures/vcr_cassettes/alarm-with-name.yml": "a96b4e28d17c087e5d8ed54c1beec23d",
  "fixtures/vcr_cassettes/asg-setup.yml": "af73e5c31d2432a77c22d10bf2cb06c2",
  "fixtures/vcr_cassettes/asg-with-name.yml": "455bd3de91979db5bcdd372cd9d10fb0",
  "fixtures/vcr_cassettes/create-alarm.yml": "8a748b1a7f9d6bad839645e0768251df",
  "fixtures/vcr_cassettes/create-asg.yml": "2916d1299be29bf4d2a5c2f437711d4b",
  "fixtures/vcr_cassettes/create-elb-test.yml": "f728a0e89d8d7944fb1ebbe736b9b2cd",
  "fixtures/vcr_cassettes/create-gateway.yml": "963507292535c234fb43d170e547496a",
  "fixtures/vcr_cassettes/create-group.yml": "bdb55e02e11d7a1aabc2b603320266d6",
  "fixtures/vcr_cassettes/create-instance.yml": "1b344d754ccfc150d6cd1cf78ba74395",
  "fixtures/vcr_cassettes/create-ip.yml": "aac56fc159c0ad3e36c78bc58a477956",
  "fixtures/vcr_cassettes/create-lc.yml": "e486d815dc20339871be82d0be23ec83",
  "fixtures/vcr_cassettes/create-named-queue.yml": "89a3fa7823a67f35edc9f95149cc8d31",
  "fixtures/vcr_cassettes/create-policy.yml": "df548ddabddf433444b01c91a45d6e8f",
  "fixtures/vcr_cassettes/create-record.yml": "fc203822e6000c59df7884de903c66b4",
  "fixtures/vcr_cassettes/create-route-table.yml": "9eac8e7ec6626a13ce330af2b6f6d664",
  "fixtures/vcr_cassettes/create-subnet.yml": "7b31a0489a245dce937de60856572a43",
  "fixtures/vcr_cassettes/create-test.yml": "015f670948dbc431bf2c874669fe0ece",
  "fixtures/vcr_cassettes/create-vpc.yml": "db55a238845598e7b1c904d750e98024",
  "fixtures/vcr_cassettes/create-zone.yml": "4ee3decd70a1cfc68dac16b3e42e5ecc",
  "fixtures/vcr_cassettes/destroy-alarm.yml": "af63b032e358678d06cffb4ac3fba229",
  "fixtures/vcr_cassettes/destroy-asg.yml": "bf7d5b03615f6ed6fff9c33c54a2f93d",
  "fixtures/vcr_cassettes/destroy-elb-test.yml": "6811dfc461e4d4de9f04a0dbe63c1022",
  "fixtures/vcr_cassettes/destroy-gateway.yml": "959a42b8c4071c4987123d0add11ce2e",
  "fixtures/vcr_cassettes/destroy-group.yml": "047c399e634027025cfbb0222c65ca25",
  "fixtures/vcr_cassettes/destroy-instance.yml": "6c15c63c2d5a5f40160c2f77da4957a1",
  "fixtures/vcr_cassettes/destroy-ip.yml": "c61cac3fd532736508fa357829344277",
  "fixtures/vcr_cassettes/destroy-lc.yml": "85d8e828a3b5af0ff7bff047a090cd27",
  "fixtures/vcr_cassettes/destroy-policy.yml": "307d1afde3a77d1d6cbfac5335cc7719",
  "fixtures/vcr_cassettes/destroy-queue.yml": "9715ccb8320fdbe0fe44dc06a26cc606",
  "fixtures/vcr_cassettes/destroy-record.yml": "ecfa48349b5608eb6fc178a9a85d26d9",
  "fixtures/vcr_cassettes/destroy-route-table.yml": "aa012dd68f1874ceea835807510497d4",
  "fixtures/vcr_cassettes/destroy-subnet.yml": "ab249f8799711cb28850eb68af882a88",
  "fixtures/vcr_cassettes/destroy-vpc.yml": "002e819d146b7bed26692c4e3cfa8fdf",
  "fixtures/vcr_cassettes/destroy-zone.yml": "13ff9f8a593e015e2b7288865a260ee0",
  "fixtures/vcr_cassettes/elb-named-test.yml": "3c5efd803c57b56ace8c3cc98335e706",
  "fixtures/vcr_cassettes/elb-setup.yml": "cd5d452ff37c175eeec0c87928c3c20a",
  "fixtures/vcr_cassettes/gateway-named-test.yml": "2f53688f997dd6d7d2089f2412e86ad0",
  "fixtures/vcr_cassettes/gateway-setup.yml": "920dd6fd1dbd161d593af90dca80168d",
  "fixtures/vcr_cassettes/get_queue.yml": "e3232ee0a77d16c03b76d4682028f004",
  "fixtures/vcr_cassettes/group-named-test.yml": "6db931f74ff2f5df4545607c683f4b0a",
  "fixtures/vcr_cassettes/group-setup.yml": "c93b8aef35203b88223c8f3a62b13a5d",
  "fixtures/vcr_cassettes/instance-setup.yml": "f368bcfe6e7bee55c1da177d5ae4d79c",
  "fixtures/vcr_cassettes/instance-with-name.yml": "dd6ea886100fdc153d9a41ffdd9b6208",
  "fixtures/vcr_cassettes/ip-named.yml": "d0e9da669ac6f4de20d05d41ea88b647",
  "fixtures/vcr_cassettes/ip-setup.yml": "a6761406ee997f0f904790ddc3d7c09c",
  "fixtures/vcr_cassettes/lc-setup.yml": "85ac286a833a8679ee3e869b255b0096",
  "fixtures/vcr_cassettes/lc-with-name.yml": "fde1cc5c03324e742130879cb56fac54",
  "fixtures/vcr_cassettes/named-queue.yml": "51c72bc937aef597e86033901121d3ac",
  "fixtures/vcr_cassettes/no-elb-named-test.yml": "8b49ffbfc9d91e2279e4cad5b1dfa723",
  "fixtures/vcr_cassettes/policy-setup.yml": "029b1f2fc03abc51f078ad630551b5ca",
  "fixtures/vcr_cassettes/policy-with-name.yml": "57460c3cb7b51266c5b81b170c2d5a59",
  "fixtures/vcr_cassettes/record-named.yml": "3566dacbfb8b68d0e32c6b0e0c5ed7d7",
  "fixtures/vcr_cassettes/record-setup.yml": "55691befff598e6c121bf371a69f0007",
  "fixtures/vcr_cassettes/route-table-named-test.yml": "0697862644cd047938088688dadb65d8",
  "fixtures/vcr_cassettes/route-table-setup.yml": "b383648e47131797da1095a22318eb55",
  "fixtures/vcr_cassettes/sqs-setup.yml": "120ca59518a380f0ec664430536630bc",
  "fixtures/vcr_cassettes/stop-instance.yml": "0b2a8c7da5212afb8c98f3b710803535",
  "fixtures/vcr_cassettes/subnet-named-test.yml": "adf5a61d644c698ba97e842a95b8f3ed",
  "fixtures/vcr_cassettes/vpc-named-test.yml": "fd565a9f8045819bf67ae9a172b66607",
  "fixtures/vcr_cassettes/vpc-setup.yml": "c44227387cfe47f7fc17e812aae82b87",
  "fixtures/vcr_cassettes/vpc-subnet-setup.yml": "a3ab90206ba6e6a8f951f26c9e256b72",
  "fixtures/vcr_cassettes/zone-named.yml": "bfff17c8545ecc9582b99b88b28ee92d",
  "fixtures/vcr_cassettes/zone-setup.yml": "b3c8ad906c158c5acca8a1cfe2c9a397",
  "lib/puppet/feature/aws.rb": "c44c40a85419b991fb66d58130c05215",
  "lib/puppet/feature/retries.rb": "12b8e31efe31fbf396663fac754211cb",
  "lib/puppet/provider/cloudwatch_alarm/v2.rb": "8440ba6d27a0d923b79f14482382d79f",
  "lib/puppet/provider/ec2_autoscalinggroup/v2.rb": "74fff5d1f1656711437b23fd98c9f7a8",
  "lib/puppet/provider/ec2_elastic_ip/v2.rb": "e3c6c0bef9c38412ee7632fdcd80adbe",
  "lib/puppet/provider/ec2_instance/v2.rb": "fc6d765994ddc1e5daca28fd65c418ef",
  "lib/puppet/provider/ec2_launchconfiguration/v2.rb": "4a778529ac04cd9072277839c8d8b5d3",
  "lib/puppet/provider/ec2_scalingpolicy/v2.rb": "49f4effde3d8134872c5c0fb6a293091",
  "lib/puppet/provider/ec2_securitygroup/v2.rb": "b02a06a4afb0b6fa6c2ae2fa897439cf",
  "lib/puppet/provider/ec2_vpc/v2.rb": "fc5417e3c97737a39d6ce3391ff34a74",
  "lib/puppet/provider/ec2_vpc_customer_gateway/v2.rb": "a20a502ac2791f6711c20e3b34b5f381",
  "lib/puppet/provider/ec2_vpc_dhcp_options/v2.rb": "53546852dacbcb5c4d46e368b391bced",
  "lib/puppet/provider/ec2_vpc_internet_gateway/v2.rb": "6e19ac7bf3fb0975a631c80af1ead96d",
  "lib/puppet/provider/ec2_vpc_routetable/v2.rb": "f1c86031fa116e991adc07fcf7a0b9ae",
  "lib/puppet/provider/ec2_vpc_subnet/v2.rb": "cec8d171951a5568088f2bb16ba90444",
  "lib/puppet/provider/ec2_vpc_vpn/v2.rb": "522a9a216c910ef460340d1d66e5a071",
  "lib/puppet/provider/ec2_vpc_vpn_gateway/v2.rb": "30908c1fd6130a8be4abca38915cf7e3",
  "lib/puppet/provider/elb_loadbalancer/v2.rb": "22c8443f65deb3677c6cbc829290ae93",
  "lib/puppet/provider/rds_db_parameter_group/v2.rb": "55030c27135821213cdfe52c41a22ade",
  "lib/puppet/provider/rds_db_securitygroup/v2.rb": "6635e343f4e6bf272f4df73a45efbdc4",
  "lib/puppet/provider/rds_instance/v2.rb": "2ffa494854ff8f434c6e513156607f6d",
  "lib/puppet/provider/route53_a_record/v2.rb": "0e266bdf6bd19b9c848a3d636839bb55",
  "lib/puppet/provider/route53_aaaa_record/v2.rb": "6f725f7c739e01e09ebd3cfd4607db70",
  "lib/puppet/provider/route53_cname_record/v2.rb": "1c80d6218dbf3643e5b8f4c44e57b099",
  "lib/puppet/provider/route53_mx_record/v2.rb": "2d4c5a63e9b5fcc301c264990a5f6b32",
  "lib/puppet/provider/route53_ns_record/v2.rb": "6796398eb00aff8710dd1ec12dc3dda6",
  "lib/puppet/provider/route53_ptr_record/v2.rb": "a8f070a3483d2530e9271fbe7884e56f",
  "lib/puppet/provider/route53_record.rb": "265b6e328d2c5e9dcaf639bf0bb1489e",
  "lib/puppet/provider/route53_spf_record/v2.rb": "31b60cd7d781dac34b793cb693cf23be",
  "lib/puppet/provider/route53_srv_record/v2.rb": "26e871f357a70a9af8e5b84393080174",
  "lib/puppet/provider/route53_txt_record/v2.rb": "ba57a75044304709f057bb3f72738e75",
  "lib/puppet/provider/route53_zone/v2.rb": "77257aa7a85232fcf8666720ba518323",
  "lib/puppet/provider/sqs_queue/v2.rb": "49a93a5855d3ceecad76c25b16a9f46e",
  "lib/puppet/type/cloudwatch_alarm.rb": "94b0f66e9848bb966ac35ea20b369c3a",
  "lib/puppet/type/ec2_autoscalinggroup.rb": "8a21f4d939e4a48a1cc4e39a56f6df60",
  "lib/puppet/type/ec2_elastic_ip.rb": "00cd1a5ea607a54d1bc2783ec1da0b43",
  "lib/puppet/type/ec2_instance.rb": "613677b9963f259a770be6da6bf1bce0",
  "lib/puppet/type/ec2_launchconfiguration.rb": "49d3e0a9011f5d7003b17e3dfa15b6ea",
  "lib/puppet/type/ec2_scalingpolicy.rb": "68b4c4a317a2a3c37b7685d5993b94c8",
  "lib/puppet/type/ec2_securitygroup.rb": "7a7c549d535dee95b6c587a443de89c5",
  "lib/puppet/type/ec2_vpc.rb": "322611a3243d222b580d8d1795618446",
  "lib/puppet/type/ec2_vpc_customer_gateway.rb": "48728d13f43f8af45b8ede840443d909",
  "lib/puppet/type/ec2_vpc_dhcp_options.rb": "f291b24b3490b2bff669261663211256",
  "lib/puppet/type/ec2_vpc_internet_gateway.rb": "d4ab1c3d578200f3862c2ea1952d28f9",
  "lib/puppet/type/ec2_vpc_routetable.rb": "0982ce1ac8fa39ff58903cb8a5818283",
  "lib/puppet/type/ec2_vpc_subnet.rb": "2c2923d9ab719938f05c31ae42c735c0",
  "lib/puppet/type/ec2_vpc_vpn.rb": "34f60c86fb9d961ce97cd59898dfcf8f",
  "lib/puppet/type/ec2_vpc_vpn_gateway.rb": "f3fa46454c65f7a24df0e5d0cb4450e2",
  "lib/puppet/type/elb_loadbalancer.rb": "f4ebb1d373995d6732a4846cb6905cf9",
  "lib/puppet/type/rds_db_parameter_group.rb": "033188c6b995ae2d3da8873af48f6260",
  "lib/puppet/type/rds_db_securitygroup.rb": "36c7ee3368b5a1c443ce84db89146f77",
  "lib/puppet/type/rds_instance.rb": "74b2a075f780bc58189c17bae8f6f050",
  "lib/puppet/type/route53_a_record.rb": "5b9eeb3a977f85e3eb480c2f0acd8731",
  "lib/puppet/type/route53_aaaa_record.rb": "7b187f5fcfc9ca600fc03eaf4f58a82c",
  "lib/puppet/type/route53_cname_record.rb": "3e3e262e24f84ae431e45e608f8f3c4d",
  "lib/puppet/type/route53_mx_record.rb": "a9128ca507cb304e4d7ed9ff417e38cc",
  "lib/puppet/type/route53_ns_record.rb": "a9c8f79ff283a926cdcc68833e173f64",
  "lib/puppet/type/route53_ptr_record.rb": "7ae42252ff7ec787f149ba92c629e544",
  "lib/puppet/type/route53_spf_record.rb": "6d41b36565a2c13acebe2ebd49fa1de4",
  "lib/puppet/type/route53_srv_record.rb": "9a36e753b6c90a026a05a62c6e886fe5",
  "lib/puppet/type/route53_txt_record.rb": "1f99fa0c17577fe90a2ada76c792394b",
  "lib/puppet/type/route53_zone.rb": "03ae3b186f3c64fa2195d99fa660c202",
  "lib/puppet/type/sqs_queue.rb": "93e7daec5198c69dc4ac0cd46b8cc95a",
  "lib/puppet_x/puppetlabs/aws.rb": "18c842152ba9e73435cfc326540379ad",
  "lib/puppet_x/puppetlabs/aws_ingress_rules_parser.rb": "651ed6dd6df5fd42b38e2da1eeb5b450",
  "lib/puppet_x/puppetlabs/property/tag.rb": "c47da1740f0f97cfa625c033d589a842",
  "lib/puppet_x/puppetlabs/route53_record.rb": "980c0cc3a4b8b80eca9d4fb82bff975f",
  "metadata.json": "cf24746705c6bcf4a88cb55df47030b7",
  "spec/acceptance/autoscaling_spec.rb": "5de8a3b4a8a842143a4e34b15a8d7bbe",
  "spec/acceptance/fixtures/autoscaling.pp.tmpl": "535b19ec62d3010960dd503655d273d4",
  "spec/acceptance/fixtures/autoscaling_configurable.pp.tmpl": "ec323e1386eceb91c3e42d2fa4a71b67",
  "spec/acceptance/fixtures/autoscaling_configurable_delete.pp.tmpl": "3adb4a7b69da6fd52360707bacd99340",
  "spec/acceptance/fixtures/autoscaling_duplicate.pp.tmpl": "f0b0f89d4cab1abb1c07239976fd4819",
  "spec/acceptance/fixtures/autoscaling_vpc.pp.tmpl": "81880f03cbe3541669956c4bb00e1a1e",
  "spec/acceptance/fixtures/autoscaling_vpc_delete.pp.tmpl": "08719135ade1029f8c67e47264e0f5f7",
  "spec/acceptance/fixtures/duplicate_asg_delete.pp.tmpl": "7432a8414a38062b5eab86cc215d86e0",
  "spec/acceptance/fixtures/eip.pp.tmpl": "af03aea420186b41aafad155224a4b22",
  "spec/acceptance/fixtures/instance.pp.tmpl": "dcd0d8bb92808a934f3a9263cf47616e",
  "spec/acceptance/fixtures/loadbalancer.pp.tmpl": "c5161bdca0fdce02e4b0331a611eb986",
  "spec/acceptance/fixtures/rds.pp.tmpl": "2645708f312d6bd6485aac2ac23735a7",
  "spec/acceptance/fixtures/rds_db_securitygroup.pp.tmpl": "5688906f79df70948e4aee9122d5209c",
  "spec/acceptance/fixtures/route53_create.pp.tmpl": "96e073a9a1f7858fc9276934bb388dbd",
  "spec/acceptance/fixtures/route53_create_minimal.pp.tmpl": "1321d65c9191a4b5ed8390f2b72a9e4a",
  "spec/acceptance/fixtures/route53_delete.pp.tmpl": "e1933f9589df2314eeddc09f80d6d648",
  "spec/acceptance/fixtures/route53_with_ns_create.pp.tmpl": "8badc36d1290386e9bec9c59c7241e81",
  "spec/acceptance/fixtures/route53_with_ns_delete.pp.tmpl": "ce8835e7257ef9af3ece6c584448f35e",
  "spec/acceptance/fixtures/securitygroup.pp.tmpl": "49ee3b46b20baa4a8ecab38164d262c0",
  "spec/acceptance/fixtures/sg_delete.pp.tmpl": "ac413200e375d9013d437a5379da4679",
  "spec/acceptance/fixtures/sqs_queue.pp.tmpl": "de5ef19c58d91cb02fb482c9d8c6da6e",
  "spec/acceptance/fixtures/vpc.pp.tmpl": "0022e3f1964d82861406c36bac09a993",
  "spec/acceptance/fixtures/vpc_complete.pp.tmpl": "d2802983d46083eed51714e4ad2cbe0f",
  "spec/acceptance/fixtures/vpc_complete_delete.pp.tmpl": "9311b824b33ccad7bae863c37c98b42b",
  "spec/acceptance/fixtures/vpc_delete.pp.tmpl": "744a478face9a7cb0c0831db8fe17049",
  "spec/acceptance/instance_spec.rb": "5f7828121473a9e67bd7d05e9ff5c4d2",
  "spec/acceptance/loadbalancer_spec.rb": "bb971c3046b2ecdfb223da868541b9ca",
  "spec/acceptance/nodesets/default.yml": "4aa7689a6133e573bf4ada241d0f0f92",
  "spec/acceptance/nodesets/vagrant.yml": "ff1f91e26cfa255cc6557f5c886373f9",
  "spec/acceptance/rds_db_securitygroup_spec.rb": "3f3f49d1c5f641e63f3fc53b71531a4a",
  "spec/acceptance/rds_spec.rb": "e053ec57ed25cb5fa8cc9500366784df",
  "spec/acceptance/route53_spec.rb": "e1a83d7b0d66b38ec967087aedb7dfac",
  "spec/acceptance/securitygroup_spec.rb": "d9a2f66947696dd7fdc2ed430ac8026e",
  "spec/acceptance/sqs_spec.rb": "89ee0f3eccb9b8685486af38908e95b3",
  "spec/acceptance/vpc_spec.rb": "75623dbc6443d89bcb9cd83d5e15fbba",
  "spec/spec_helper.rb": "14f51b07774284e929548f66ed1aa4d0",
  "spec/spec_helper_acceptance.rb": "579c47fde32b54a0fcc6d4bb8c5bf91b",
  "spec/unit/ingress_rules_spec.rb": "d639171c03cc30d551dd184d95a58019",
  "spec/unit/provider/cloudwatch_alarm/v2_spec.rb": "f881ed5f4fd3cef2d0723807eeabf481",
  "spec/unit/provider/ec2_autoscalinggroup/v2_spec.rb": "388aaf5a2a86c4b98fc03668a2500773",
  "spec/unit/provider/ec2_elastic_ip/v2_spec.rb": "7cc68854bd1e12e83363310da02290c5",
  "spec/unit/provider/ec2_instance/v2_spec.rb": "45c690ab70dde55e8c561d0cd40b3d55",
  "spec/unit/provider/ec2_launchconfig/v2_spec.rb": "c83b19755342e087002e09270ee4d696",
  "spec/unit/provider/ec2_scalingpolicy/v2_spec.rb": "61ab006126ce4d53dabb9338b0296a0c",
  "spec/unit/provider/ec2_securitygroup/v2_spec.rb": "5cd1e36a53e0cd379cc9877930c03507",
  "spec/unit/provider/elb_loadbalancer/v2_spec.rb": "ffecde5eb4860c0be4eae96f326d120f",
  "spec/unit/provider/rds_db_securitygroup/v2_spec.rb": "b1bdde62c9d6b7c445f8dd6817fd97e0",
  "spec/unit/provider/rds_instance/v2_spec.rb": "cf43361ddc2c00835e6467cc29634201",
  "spec/unit/provider/route53_record/v2_spec.rb": "376d03138552c7d2bb4d5e588582a756",
  "spec/unit/provider/route53_zone/v2_spec.rb": "d9c246700a34913e78545a6dda760610",
  "spec/unit/provider/sqs_queue/v2_spec.rb": "4b104bdb31438a931d3b7bf3181f9174",
  "spec/unit/type/cloudwatch_alarm_spec.rb": "2b93b80b29c10a782f8d172d8bbc3a5c",
  "spec/unit/type/ec2_autoscalinggroup_spec.rb": "6e31aae7f408bfd994b41b06bddfb206",
  "spec/unit/type/ec2_elastic_ip_spec.rb": "e6d39ebea4429c8f79946b566db19d3d",
  "spec/unit/type/ec2_instance_spec.rb": "0544bdfcdafa5875f07eba1c4be80466",
  "spec/unit/type/ec2_launchconfiguration_spec.rb": "03350d09e1abb74183d587e0b3f42e98",
  "spec/unit/type/ec2_scalingpolicy_spec.rb": "366815a57c7ec9a131703415021ded6b",
  "spec/unit/type/ec2_securitygroup_spec.rb": "2fbd270e824314cee53f613995bc4f59",
  "spec/unit/type/ec2_vpc_customer_gateway_spec.rb": "a28e6e9823057684c481f93618f2040f",
  "spec/unit/type/ec2_vpc_dhcp_options_spec.rb": "79254e2dfb231610d3909cc289e75119",
  "spec/unit/type/ec2_vpc_internet_gateway_spec.rb": "3c7720da45037cde0827817cd22500bf",
  "spec/unit/type/ec2_vpc_routetable_spec.rb": "3896033a1f81ca207400f876e893a111",
  "spec/unit/type/ec2_vpc_spec.rb": "5f07fd7ba3dbf89e183598859dffc800",
  "spec/unit/type/ec2_vpc_subnet_spec.rb": "98d717271ae6851e76caac8e1462ca4b",
  "spec/unit/type/ec2_vpc_vpn_gateway_spec.rb": "cd68523a7525a00fffd1e6b1bb4da130",
  "spec/unit/type/ec2_vpc_vpn_spec.rb": "8f9da291c1cb7ab5bd645fd238ff5a7a",
  "spec/unit/type/elb_loadbalancer_spec.rb": "1599b8e38d06c468038ff1fb5bb5c0ef",
  "spec/unit/type/rds_db_parameter_group_spec.rb": "210406147755cd9d3179df809912ec36",
  "spec/unit/type/rds_db_securitygroup_spec.rb": "8ddcb351d03f9b1d1d12b6304d0543bd",
  "spec/unit/type/rds_instance_spec.rb": "e1a21e9722af90c3cbad7c215be29032",
  "spec/unit/type/route53_record_spec.rb": "bf001a5d9cbcd9c9dde90894e060e2fb",
  "spec/unit/type/route53_zone_spec.rb": "b790f24140e8aeef9c9ee4689b44720f",
  "spec/unit/type/sqs_queue_spec.rb": "894b18a620b8dc18cea66dde5f3c759f",
  "tests/create.pp": "4c756d46c9a7084e9474eff85499b292",
  "tests/destroy.pp": "af008e33a887ed29b732734c80b802fd"
}